{
  "new_entries": {
    "has_next": false,
    "page": 1,
    "results": []
  },
  "last_updated_data": "2022-01-15T17:01:55Z",
  "league": {
    "id": 224193,
    "name": "The Fantasy Kickabout",
    "created": "2021-07-16T16:27:14.594330Z",
    "closed": false,
    "max_entries": null,
    "league_type": "x",
    "scoring": "c",
    "admin_entry": 122301,
    "start_event": 1,
    "code_privacy": "p",
    "has_cup": true,
    "cup_league": null,
    "rank": null
  },
  "standings": {
    "has_next": true,
    "page": 1,
    "results": [
      {
        "id": 16965100,
        "event_total": 11,
        "player_name": "Joe Bloggs",
        "rank": 1,
        "last_rank": 1,
        "rank_sort": 1,
        "total": 1416,
        "entry": 1783,
        "entry_name": "Sample Team"
      },
      {
        "id": 24248263,
        "event_total": 20,
        "player_name": "Joe Bloggs",
        "rank": 2,
        "last_rank": 2,
        "rank_sort": 2,
        "total": 1374,
        "entry": 1759,
        "entry_name": "Sample Team"
      },
      {
        "id": 23646655,
        "event_total": 20,
        "player_name": "Joe Bloggs",
        "rank": 3,
        "last_rank": 4,
        "rank_sort": 3,
        "total": 1361,
        "entry": 31485,
        "entry_name": "Sample Team"
      },
      {
        "id": 6398288,
        "event_total": 22,
        "player_name": "Joe Bloggs",
        "rank": 4,
        "last_rank": 5,
        "rank_sort": 4,
        "total": 1354,
        "entry": 9619,
        "entry_name": "Sample Team"
      },
      {
        "id": 6398280,
        "event_total": 9,
        "player_name": "Joe Bloggs",
        "rank": 5,
        "last_rank": 3,
        "rank_sort": 5,
        "total": 1351,
        "entry": 51003,
        "entry_name": "Sample Team"
      },
      {
        "id": 6398274,
        "event_total": 16,
        "player_name": "Joe Bloggs",
        "rank": 6,
        "last_rank": 7,
        "rank_sort": 6,
        "total": 1343,
        "entry": 190539,
        "entry_name": "Sample Team"
      },
      {
        "id": 10492699,
        "event_total": 17,
        "player_name": "Joe Bloggs",
        "rank": 7,
        "last_rank": 8,
        "rank_sort": 7,
        "total": 1343,
        "entry": 365879,
        "entry_name": "Sample Team"
      },
      {
        "id": 23539092,
        "event_total": 17,
        "player_name": "Joe Bloggs",
        "rank": 8,
        "last_rank": 6,
        "rank_sort": 8,
        "total": 1338,
        "entry": 149606,
        "entry_name": "Sample Team"
      },
      {
        "id": 6398272,
        "event_total": 13,
        "player_name": "Joe Bloggs",
        "rank": 9,
        "last_rank": 9,
        "rank_sort": 9,
        "total": 1333,
        "entry": 35634,
        "entry_name": "Sample Team"
      },
      {
        "id": 31514508,
        "event_total": 10,
        "player_name": "Joe Bloggs",
        "rank": 10,
        "last_rank": 10,
        "rank_sort": 10,
        "total": 1317,
        "entry": 4468004,
        "entry_name": "Sample Team"
      },
      {
        "id": 6398287,
        "event_total": 10,
        "player_name": "Joe Bloggs",
        "rank": 11,
        "last_rank": 11,
        "rank_sort": 11,
        "total": 1305,
        "entry": 160842,
        "entry_name": "Sample Team"
      },
      {
        "id": 23086947,
        "event_total": 20,
        "player_name": "Joe Bloggs",
        "rank": 12,
        "last_rank": 13,
        "rank_sort": 12,
        "total": 1296,
        "entry": 3573238,
        "entry_name": "Sample Team"
      },
      {
        "id": 23149260,
        "event_total": 3,
        "player_name": "Joe Bloggs",
        "rank": 13,
        "last_rank": 12,
        "rank_sort": 13,
        "total": 1289,
        "entry": 2913295,
        "entry_name": "Sample Team"
      },
      {
        "id": 10426274,
        "event_total": 8,
        "player_name": "Joe Bloggs",
        "rank": 14,
        "last_rank": 15,
        "rank_sort": 14,
        "total": 1286,
        "entry": 1864273,
        "entry_name": "Sample Team"
      },
      {
        "id": 6398289,
        "event_total": 6,
        "player_name": "Joe Bloggs",
        "rank": 15,
        "last_rank": 14,
        "rank_sort": 15,
        "total": 1282,
        "entry": 5347,
        "entry_name": "Sample Team"
      },
      {
        "id": 6398271,
        "event_total": 12,
        "player_name": "Joe Bloggs",
        "rank": 16,
        "last_rank": 16,
        "rank_sort": 16,
        "total": 1280,
        "entry": 10681,
        "entry_name": "Sample Team"
      },
      {
        "id": 6398270,
        "event_total": 8,
        "player_name": "Joe Bloggs",
        "rank": 17,
        "last_rank": 17,
        "rank_sort": 17,
        "total": 1276,
        "entry": 122301,
        "entry_name": "Sample Team"
      },
      {
        "id": 24506383,
        "event_total": 6,
        "player_name": "Joe Bloggs",
        "rank": 18,
        "last_rank": 18,
        "rank_sort": 18,
        "total": 1268,
        "entry": 3762648,
        "entry_name": "Sample Team"
      },
      {
        "id": 7425679,
        "event_total": 18,
        "player_name": "Joe Bloggs",
        "rank": 19,
        "last_rank": 19,
        "rank_sort": 19,
        "total": 1260,
        "entry": 1363694,
        "entry_name": "Sample Team"
      },
      {
        "id": 22595420,
        "event_total": 21,
        "player_name": "Joe Bloggs",
        "rank": 20,
        "last_rank": 21,
        "rank_sort": 20,
        "total": 1241,
        "entry": 3508831,
        "entry_name": "Sample Team"
      },
      {
        "id": 7537570,
        "event_total": 15,
        "player_name": "Joe Bloggs",
        "rank": 21,
        "last_rank": 20,
        "rank_sort": 21,
        "total": 1238,
        "entry": 1382200,
        "entry_name": "Sample Team"
      },
      {
        "id": 14453344,
        "event_total": 12,
        "player_name": "Joe Bloggs",
        "rank": 22,
        "last_rank": 22,
        "rank_sort": 22,
        "total": 1230,
        "entry": 898572,
        "entry_name": "Sample Team"
      },
      {
        "id": 7156317,
        "event_total": 4,
        "player_name": "Joe Bloggs",
        "rank": 23,
        "last_rank": 23,
        "rank_sort": 23,
        "total": 1218,
        "entry": 1317196,
        "entry_name": "Sample Team"
      },
      {
        "id": 7420389,
        "event_total": 19,
        "player_name": "Joe Bloggs",
        "rank": 24,
        "last_rank": 24,
        "rank_sort": 24,
        "total": 1172,
        "entry": 1362869,
        "entry_name": "Sample Team"
      },
      {
        "id": 7416736,
        "event_total": 14,
        "player_name": "Joe Bloggs",
        "rank": 25,
        "last_rank": 25,
        "rank_sort": 25,
        "total": 1167,
        "entry": 1362280,
        "entry_name": "Sample Team"
      },
      {
        "id": 7420764,
        "event_total": 22,
        "player_name": "Joe Bloggs",
        "rank": 26,
        "last_rank": 27,
        "rank_sort": 26,
        "total": 1163,
        "entry": 1362935,
        "entry_name": "Sample Team"
      },
      {
        "id": 6885295,
        "event_total": 7,
        "player_name": "Joe Bloggs",
        "rank": 27,
        "last_rank": 26,
        "rank_sort": 27,
        "total": 1155,
        "entry": 1271136,
        "entry_name": "Sample Team"
      },
      {
        "id": 6398282,
        "event_total": 19,
        "player_name": "Joe Bloggs",
        "rank": 28,
        "last_rank": 28,
        "rank_sort": 28,
        "total": 1136,
        "entry": 457062,
        "entry_name": "Sample Team"
      },
      {
        "id": 6398286,
        "event_total": 19,
        "player_name": "Joe Bloggs",
        "rank": 29,
        "last_rank": 29,
        "rank_sort": 29,
        "total": 1133,
        "entry": 83651,
        "entry_name": "Sample Team"
      },
      {
        "id": 7533371,
        "event_total": 18,
        "player_name": "Joe Bloggs",
        "rank": 30,
        "last_rank": 30,
        "rank_sort": 30,
        "total": 1118,
        "entry": 1381461,
        "entry_name": "Sample Team"
      },
      {
        "id": 9300348,
        "event_total": 9,
        "player_name": "Joe Bloggs",
        "rank": 31,
        "last_rank": 31,
        "rank_sort": 31,
        "total": 1111,
        "entry": 1682892,
        "entry_name": "Sample Team"
      },
      {
        "id": 22360632,
        "event_total": 7,
        "player_name": "Joe Bloggs",
        "rank": 32,
        "last_rank": 32,
        "rank_sort": 32,
        "total": 1103,
        "entry": 3474848,
        "entry_name": "Sample Team"
      },
      {
        "id": 6973492,
        "event_total": 21,
        "player_name": "Joe Bloggs",
        "rank": 33,
        "last_rank": 34,
        "rank_sort": 33,
        "total": 1102,
        "entry": 1286488,
        "entry_name": "Sample Team"
      },
      {
        "id": 22353195,
        "event_total": 16,
        "player_name": "Joe Bloggs",
        "rank": 34,
        "last_rank": 33,
        "rank_sort": 34,
        "total": 1098,
        "entry": 3474649,
        "entry_name": "Sample Team"
      },
      {
        "id": 16851046,
        "event_total": 19,
        "player_name": "Joe Bloggs",
        "rank": 35,
        "last_rank": 35,
        "rank_sort": 35,
        "total": 1093,
        "entry": 2856742,
        "entry_name": "Sample Team"
      },
      {
        "id": 11188222,
        "event_total": 7,
        "player_name": "Joe Bloggs",
        "rank": 36,
        "last_rank": 36,
        "rank_sort": 36,
        "total": 1070,
        "entry": 1985556,
        "entry_name": "Sample Team"
      },
      {
        "id": 22747170,
        "event_total": 9,
        "player_name": "Joe Bloggs",
        "rank": 37,
        "last_rank": 37,
        "rank_sort": 37,
        "total": 1069,
        "entry": 3529121,
        "entry_name": "Sample Team"
      },
      {
        "id": 6398281,
        "event_total": 7,
        "player_name": "Joe Bloggs",
        "rank": 38,
        "last_rank": 38,
        "rank_sort": 38,
        "total": 1067,
        "entry": 85325,
        "entry_name": "Sample Team"
      },
      {
        "id": 8182341,
        "event_total": 30,
        "player_name": "Joe Bloggs",
        "rank": 39,
        "last_rank": 41,
        "rank_sort": 39,
        "total": 1065,
        "entry": 1490219,
        "entry_name": "Sample Team"
      },
      {
        "id": 24604026,
        "event_total": 3,
        "player_name": "Joe Bloggs",
        "rank": 40,
        "last_rank": 39,
        "rank_sort": 40,
        "total": 1061,
        "entry": 1849972,
        "entry_name": "Sample Team"
      },
      {
        "id": 15233232,
        "event_total": 4,
        "player_name": "Joe Bloggs",
        "rank": 41,
        "last_rank": 40,
        "rank_sort": 41,
        "total": 1058,
        "entry": 2609910,
        "entry_name": "Sample Team"
      },
      {
        "id": 14187753,
        "event_total": 19,
        "player_name": "Joe Bloggs",
        "rank": 42,
        "last_rank": 43,
        "rank_sort": 42,
        "total": 1030,
        "entry": 2458452,
        "entry_name": "Sample Team"
      },
      {
        "id": 6799589,
        "event_total": 16,
        "player_name": "Joe Bloggs",
        "rank": 43,
        "last_rank": 42,
        "rank_sort": 43,
        "total": 1014,
        "entry": 1256209,
        "entry_name": "Sample Team"
      },
      {
        "id": 9986995,
        "event_total": 9,
        "player_name": "Joe Bloggs",
        "rank": 44,
        "last_rank": 45,
        "rank_sort": 44,
        "total": 1010,
        "entry": 1791976,
        "entry_name": "Sample Team"
      },
      {
        "id": 34012612,
        "event_total": 8,
        "player_name": "Joe Bloggs",
        "rank": 45,
        "last_rank": 44,
        "rank_sort": 45,
        "total": 1009,
        "entry": 4995922,
        "entry_name": "Sample Team"
      },
      {
        "id": 7556483,
        "event_total": 14,
        "player_name": "Joe Bloggs",
        "rank": 46,
        "last_rank": 46,
        "rank_sort": 46,
        "total": 1002,
        "entry": 1385604,
        "entry_name": "Sample Team"
      },
      {
        "id": 23796577,
        "event_total": 4,
        "player_name": "Joe Bloggs",
        "rank": 47,
        "last_rank": 47,
        "rank_sort": 47,
        "total": 988,
        "entry": 3668469,
        "entry_name": "Sample Team"
      },
      {
        "id": 25524042,
        "event_total": 3,
        "player_name": "Joe Bloggs",
        "rank": 48,
        "last_rank": 48,
        "rank_sort": 48,
        "total": 943,
        "entry": 3899974,
        "entry_name": "Sample Team"
      },
      {
        "id": 63325725,
        "event_total": 12,
        "player_name": "Joe Bloggs",
        "rank": 49,
        "last_rank": 0,
        "rank_sort": 49,
        "total": 941,
        "entry": 1513901,
        "entry_name": "Sample Team"
      },
      {
        "id": 10784266,
        "event_total": 24,
        "player_name": "Joe Bloggs",
        "rank": 50,
        "last_rank": 49,
        "rank_sort": 50,
        "total": 937,
        "entry": 1921784,
        "entry_name": "Sample Team"
      }
    ]
  }
}